{
  "tests": [
    {
      "targets": ["core_tests", "sleep_tests"],
      "profiles": ["Debug", "FaultyThreadsASan"]
    }
  ],
  "lint_files": ["tinyfibers"],
  "submit_files": [
    "tinyfibers/runtime"
  ],
  "forbidden_patterns": ["sleep_for"]
}
